{
    "panel_id": 24,
    "panel_mac": "0013a1ffff23",
    "url_base": "http://dev.crowcloud.xyz",
    "url_yaml_old": "https://api-doc-stage.crowcloud.xyz/crowdoc.yaml",
    "url_yaml": "https://bitbucket.org/crowgroup/router/raw/master/api_doc/crowdoc.yaml",
    "git_repo_remote": "git@bitbucket.org:crowgroup/router.git",
    "git_repo_local": "/var/tmp/router",
    "path_yaml": "/var/tmp/crowdoc.yaml",
    "X-Crow-CP-User": "1234",
    "X-Crow-CP-Remote": "12345678",
    "X-Crow-CP-Installer": "000000",
    "authorization": {
        "client_id": "GmaT7capSShGKDXzQt8ge1M5i1BcuGs3CIyKkp6g",
        "client_secret": "e4h56Q8WdFAdtc3g5weYjKvOETX3SVH3Yd3G31tiLwuXPDLuUZHVMmX7qZzeTxWzkVuLV2QFJJa1ZKlhIi3vJMu7dpUNySBgTNYdutl3TQAyspzCzS1KCTni9fOduh1R"
    },
    "login": {
        "username": "igorg@crow.co.il",
        "password": "igor123",
        "grant_type": "password"
    },
    "devices": {
        "cam": 2325608,
        "cam2": 2325195,
        "mag": 2171688,
        "mag2": 2171585,
        "hum": 1587497,
        "ac_plug": 2333747,
        "ac_plug2": 2333837,
        "smk": 2333670
    }
}

